let data = {
  "response": {
    "status": "ok",
    "userTier": "developer",
    "total": 6159,
    "startIndex": 1,
    "pageSize": 10,
    "currentPage": 1,
    "pages": 616,
    "orderBy": "relevance",
    "results": [
      {
        "id": "world/2020/nov/08/ethiopia-reports-of-heavy-casualties-in-fighting-in-tigray",
        "type": "article",
        "sectionId": "world",
        "sectionName": "World news",
        "webPublicationDate": "2020-11-08T17:07:27Z",
        "webTitle": "Ethiopia: reports of heavy casualties in fighting in Tigray",
        "webUrl": "https://www.theguardian.com/world/2020/nov/08/ethiopia-reports-of-heavy-casualties-in-fighting-in-tigray",
        "apiUrl": "https://content.guardianapis.com/world/2020/nov/08/ethiopia-reports-of-heavy-casualties-in-fighting-in-tigray",
        "isHosted": false,
        "pillarId": "pillar/news",
        "pillarName": "News"
      },
      {
        "id": "world/2020/nov/02/killed-ethiopia-massacre-amnesty-oromia-amhara",
        "type": "article",
        "sectionId": "world",
        "sectionName": "World news",
        "webPublicationDate": "2020-11-02T19:36:03Z",
        "webTitle": "At least 54 killed in Ethiopia massacre, says Amnesty",
        "webUrl": "https://www.theguardian.com/world/2020/nov/02/killed-ethiopia-massacre-amnesty-oromia-amhara",
        "apiUrl": "https://content.guardianapis.com/world/2020/nov/02/killed-ethiopia-massacre-amnesty-oromia-amhara",
        "isHosted": false,
        "pillarId": "pillar/news",
        "pillarName": "News"
      },
      {
        "id": "commentisfree/2020/nov/08/the-guardian-view-on-ethiopia-a-tragedy-in-the-making",
        "type": "article",
        "sectionId": "commentisfree",
        "sectionName": "Opinion",
        "webPublicationDate": "2020-11-08T19:05:15Z",
        "webTitle": "The Guardian view on Ethiopia: a tragedy in the making? | Editorial",
        "webUrl": "https://www.theguardian.com/commentisfree/2020/nov/08/the-guardian-view-on-ethiopia-a-tragedy-in-the-making",
        "apiUrl": "https://content.guardianapis.com/commentisfree/2020/nov/08/the-guardian-view-on-ethiopia-a-tragedy-in-the-making",
        "isHosted": false,
        "pillarId": "pillar/opinion",
        "pillarName": "Opinion"
      },
      {
        "id": "world/2020/nov/11/thousands-of-refugees-cross-into-sudan-to-flee-fighting-in-ethiopia",
        "type": "article",
        "sectionId": "world",
        "sectionName": "World news",
        "webPublicationDate": "2020-11-12T14:21:42Z",
        "webTitle": "Thousands more refugees cross into Sudan to flee fighting in Ethiopia",
        "webUrl": "https://www.theguardian.com/world/2020/nov/11/thousands-of-refugees-cross-into-sudan-to-flee-fighting-in-ethiopia",
        "apiUrl": "https://content.guardianapis.com/world/2020/nov/11/thousands-of-refugees-cross-into-sudan-to-flee-fighting-in-ethiopia",
        "isHosted": false,
        "pillarId": "pillar/news",
        "pillarName": "News"
      },
      {
        "id": "world/2020/nov/08/pm-who-won-nobel-peace-prize-takes-ethiopia-to-brink-of-civil-war",
        "type": "article",
        "sectionId": "world",
        "sectionName": "World news",
        "webPublicationDate": "2020-11-08T08:30:34Z",
        "webTitle": "PM who won Nobel peace prize takes Ethiopia to brink of civil war",
        "webUrl": "https://www.theguardian.com/world/2020/nov/08/pm-who-won-nobel-peace-prize-takes-ethiopia-to-brink-of-civil-war",
        "apiUrl": "https://content.guardianapis.com/world/2020/nov/08/pm-who-won-nobel-peace-prize-takes-ethiopia-to-brink-of-civil-war",
        "isHosted": false,
        "pillarId": "pillar/news",
        "pillarName": "News"
      },
      {
        "id": "world/2020/nov/04/ethiopia-on-brink-as-pm-orders-military-response-to-attack",
        "type": "article",
        "sectionId": "world",
        "sectionName": "World news",
        "webPublicationDate": "2020-11-04T14:31:05Z",
        "webTitle": "Fighting reported in Ethiopia after PM responds to 'attack' by regional ruling party",
        "webUrl": "https://www.theguardian.com/world/2020/nov/04/ethiopia-on-brink-as-pm-orders-military-response-to-attack",
        "apiUrl": "https://content.guardianapis.com/world/2020/nov/04/ethiopia-on-brink-as-pm-orders-military-response-to-attack",
        "isHosted": false,
        "pillarId": "pillar/news",
        "pillarName": "News"
      },
      {
        "id": "world/2020/jul/02/ethiopia-braced-for-more-violence-over-musicians-killing-haacaaluu-hundeessaa",
        "type": "article",
        "sectionId": "world",
        "sectionName": "World news",
        "webPublicationDate": "2020-07-02T12:34:29Z",
        "webTitle": "Ethiopia braced for more violence over musician's killing",
        "webUrl": "https://www.theguardian.com/world/2020/jul/02/ethiopia-braced-for-more-violence-over-musicians-killing-haacaaluu-hundeessaa",
        "apiUrl": "https://content.guardianapis.com/world/2020/jul/02/ethiopia-braced-for-more-violence-over-musicians-killing-haacaaluu-hundeessaa",
        "isHosted": false,
        "pillarId": "pillar/news",
        "pillarName": "News"
      },
      {
        "id": "global-development/2020/aug/03/how-a-musicians-death-unleashed-violence-and-death-in-ethiopia",
        "type": "article",
        "sectionId": "global-development",
        "sectionName": "Global development",
        "webPublicationDate": "2020-08-03T06:15:33Z",
        "webTitle": "How a musician's death unleashed violence and death in Ethiopia",
        "webUrl": "https://www.theguardian.com/global-development/2020/aug/03/how-a-musicians-death-unleashed-violence-and-death-in-ethiopia",
        "apiUrl": "https://content.guardianapis.com/global-development/2020/aug/03/how-a-musicians-death-unleashed-violence-and-death-in-ethiopia",
        "isHosted": false,
        "pillarId": "pillar/news",
        "pillarName": "News"
      },
      {
        "id": "global-development/2020/sep/03/trumps-tweets-are-felt-in-ethiopia-washington-should-use-its-power-wisely",
        "type": "article",
        "sectionId": "global-development",
        "sectionName": "Global development",
        "webPublicationDate": "2020-09-03T07:30:04Z",
        "webTitle": "Trump's tweets are felt in Ethiopia. Washington should use its power wisely |  Mekonnen Firew Ayano",
        "webUrl": "https://www.theguardian.com/global-development/2020/sep/03/trumps-tweets-are-felt-in-ethiopia-washington-should-use-its-power-wisely",
        "apiUrl": "https://content.guardianapis.com/global-development/2020/sep/03/trumps-tweets-are-felt-in-ethiopia-washington-should-use-its-power-wisely",
        "isHosted": false,
        "pillarId": "pillar/news",
        "pillarName": "News"
      },
      {
        "id": "world/2020/aug/29/ethiopia-falls-into-violence-a-year-after-leaders-nobel-peace-prize-win",
        "type": "article",
        "sectionId": "world",
        "sectionName": "World news",
        "webPublicationDate": "2020-08-29T19:10:41Z",
        "webTitle": "Ethiopia falls into violence a year after leader’s Nobel peace prize win",
        "webUrl": "https://www.theguardian.com/world/2020/aug/29/ethiopia-falls-into-violence-a-year-after-leaders-nobel-peace-prize-win",
        "apiUrl": "https://content.guardianapis.com/world/2020/aug/29/ethiopia-falls-into-violence-a-year-after-leaders-nobel-peace-prize-win",
        "isHosted": false,
        "pillarId": "pillar/news",
        "pillarName": "News"
      }
    ]
  }
}
